Country name,Country ID,GDP (raw),Lambda-Wage,Land in ag (raw),Land in ag (equilibrium),Crop price index (equilibrium),Welfare numerator,Crop value,OG term
Algeria,1.0000000000000000000000000000000000,138100000000.0000000000000000000000000000000000,89146691.2062467040000000000000000000000000,1974981.0000000000000000000000000000000000,342496.2633802691700000000000000000000000,3.7350877396394409000000000000000000,119042363597.7199400000000000000000000000000000,4640665811.1120605000000000000000000000000000,-2685236707.5661211000000000000000000000000000
Argentina,2.0000000000000000000000000000000000,307100000000.0000000000000000000000000000000000,159647830.3625468000000000000000000000000000,23376930.0000000000000000000000000000000000,694585.9277545515200000000000000000000000,1.8974029210811447000000000000000000,192209277081.0458700000000000000000000000000000,15352427816.5656240000000000000000000000000000,-9103090903.7047329000000000000000000000000000
Australia,3.0000000000000000000000000000000000,924200000000.0000000000000000000000000000000000,228614731.2112455700000000000000000000000000,14513051.0000000000000000000000000000000000,342615.9215858634600000000000000000000000,5.6738418394736794000000000000000000,84820299483.5503230000000000000000000000000000,10379795527.8441660000000000000000000000000000,-6159652623.1462927000000000000000000000000000
Bangladesh,4.0000000000000000000000000000000000,89360000000.0000000000000000000000000000000000,11817883.0205535960000000000000000000000000,12524945.0000000000000000000000000000000000,5325808.2867210601000000000000000000000000,10.7847448549618790000000000000000000,259215806299.6951600000000000000000000000000000,10356704525.3734400000000000000000000000000000,-5352691083.1398821000000000000000000000000000
Brazil,5.0000000000000000000000000000000000,1622000000000.0000000000000000000000000000000000,278403217.9349598300000000000000000000000000,50819507.0000000000000000000000000000000000,1083221.4241521924000000000000000000000000,8.2500304701167249000000000000000000,827121051596.8846400000000000000000000000000000,38499668735.6638570000000000000000000000000000,-22814921804.4326860000000000000000000000000000
Cameroon,6.0000000000000000000000000000000000,22180000000.0000000000000000000000000000000000,521315845.8214793800000000000000000000000000,1531602.0000000000000000000000000000000000,34777.4698936125420000000000000000000000,4.5317457551269786000000000000000000,38549925023.5976330000000000000000000000000000,2120111261.8318982000000000000000000000000000,-1258991439.0237062000000000000000000000000000
Canada,7.0000000000000000000000000000000000,1338000000000.0000000000000000000000000000000000,58102415.9207462970000000000000000000000000,12335691.0000000000000000000000000000000000,2502788.8994710469000000000000000000000000,1.1147419165165657000000000000000000,91285939602.3471220000000000000000000000000000,26912255796.8097840000000000000000000000000000,-15935128120.7193110000000000000000000000000000
China,8.0000000000000000000000000000000000,4991000000000.0000000000000000000000000000000000,55039447.1157314930000000000000000000000000,107634087.0000000000000000000000000000000000,28841316.0396776800000000000000000000000000,3.4515885006561504000000000000000000,6157327454326.4326000000000000000000000000000000,252510045798.1187100000000000000000000000000000,-141306913433.4740300000000000000000000000000000
Colombia,9.0000000000000000000000000000000000,236200000000.0000000000000000000000000000000000,333228832.7427340100000000000000000000000000,2355522.0000000000000000000000000000000000,113979.6562971417600000000000000000000000,14.8954529193529590000000000000000000,105777516135.5109600000000000000000000000000000,4466917834.0164566000000000000000000000000000,-2644786652.2344084000000000000000000000000000
Democratic Republic of the Congo,10.0000000000000000000000000000000000,11200000000.0000000000000000000000000000000000,1019132494.5909301000000000000000000000000000,2606498.0000000000000000000000000000000000,14745.7216729257870000000000000000000000,8.6015904338256153000000000000000000,33025683363.6411930000000000000000000000000000,1760132389.8889558000000000000000000000000000,-1045453437.1335843000000000000000000000000000
Cote d'Ivoire,11.0000000000000000000000000000000000,23040000000.0000000000000000000000000000000000,331624288.1850895300000000000000000000000000,1554018.0000000000000000000000000000000000,39432.1939373962450000000000000000000000,5.4613732509580997000000000000000000,28777719270.2025870000000000000000000000000000,1536980777.9314344000000000000000000000000000,-912578911.7208955300000000000000000000000000
Ecuador,12.0000000000000000000000000000000000,52020000000.0000000000000000000000000000000000,146807231.6493865300000000000000000000000000,1440810.0000000000000000000000000000000000,154316.2113252874700000000000000000000000,8.0412366762495644000000000000000000,35836431864.4193340000000000000000000000000000,2658969934.9466071000000000000000000000000000,-1573567709.3044841000000000000000000000000000
Egypt,13.0000000000000000000000000000000000,189000000000.0000000000000000000000000000000000,0.0000000000000000000000000000000000,3567772.0000000000000000000000000000000000,282002.4182606878500000000000000000000000,15.1345617362958420000000000000000000,257751605273.4494600000000000000000000000000000,46847641.8226277830000000000000000000000000,0.0000000000000000000000000000000000
Ethiopia,14.0000000000000000000000000000000000,31960000000.0000000000000000000000000000000000,191543763.8450256300000000000000000000000000,3414428.0000000000000000000000000000000000,194905.9728211009900000000000000000000000,3.9050311864637051000000000000000000,86759087645.2998050000000000000000000000000000,4409411364.8724451000000000000000000000000000,-2614041166.3742595000000000000000000000000000
France,15.0000000000000000000000000000000000,2620000000000.0000000000000000000000000000000000,250669565.1379721200000000000000000000000000,7090717.0000000000000000000000000000000000,193196.2579758729600000000000000000000000,4.0326551802131050000000000000000000,106097704183.8004200000000000000000000000000000,8324826373.3103962000000000000000000000000000,-4937888031.3617659000000000000000000000000000
Germany,16.0000000000000000000000000000000000,3299000000000.0000000000000000000000000000000000,273914788.1468515400000000000000000000000000,3955389.0000000000000000000000000000000000,141422.8524902492600000000000000000000000,4.9173206894298787000000000000000000,186686132057.4004500000000000000000000000000000,7200631831.1130810000000000000000000000000000,-4271401406.9701581000000000000000000000000000
Ghana,17.0000000000000000000000000000000000,25980000000.0000000000000000000000000000000000,738170132.0875968900000000000000000000000000,1884986.0000000000000000000000000000000000,30630.5843709867950000000000000000000000,2.4883630894040181000000000000000000,58867555229.8961490000000000000000000000000000,2656243142.1352868000000000000000000000000000,-1576771689.4525630000000000000000000000000000
Greece,18.0000000000000000000000000000000000,321800000000.0000000000000000000000000000000000,133871570.1872596900000000000000000000000000,1262172.0000000000000000000000000000000000,144097.6881498537000000000000000000000000,2.8330869425925300000000000000000000,68476407603.6098100000000000000000000000000000,2983337280.6991267000000000000000000000000000,-1750822015.4252918000000000000000000000000000
India,19.0000000000000000000000000000000000,1361000000000.0000000000000000000000000000000000,42389160.6767752690000000000000000000000000,105647700.0000000000000000000000000000000000,19192562.1029220450000000000000000000000000,3.4751765089328073000000000000000000,2429201300361.3867000000000000000000000000000000,108605054693.7628000000000000000000000000000000,-62539381083.6630860000000000000000000000000000
Indonesia,20.0000000000000000000000000000000000,539600000000.0000000000000000000000000000000000,139575550.0842072400000000000000000000000000,23533949.0000000000000000000000000000000000,2248567.6233017421000000000000000000000000,8.1489280093112502000000000000000000,812357974843.5878900000000000000000000000000000,37206496405.3254390000000000000000000000000000,-21943964738.0628200000000000000000000000000000
Iran (Islamic Republic of),21.0000000000000000000000000000000000,331000000000.0000000000000000000000000000000000,15336450.2792857770000000000000000000000000,7980034.0000000000000000000000000000000000,3140110.0302811079000000000000000000000000,13.6204380776154000000000000000000000,207810424824.6342500000000000000000000000000000,8795933450.3642807000000000000000000000000000,-4518363285.6600809000000000000000000000000000
Italy,22.0000000000000000000000000000000000,2111000000000.0000000000000000000000000000000000,158776625.1047242000000000000000000000000000,3278433.0000000000000000000000000000000000,301465.4157397485700000000000000000000000,4.7563272809306136000000000000000000,233968787772.6536600000000000000000000000000000,7893424974.7163458000000000000000000000000000,-4647460982.5333748000000000000000000000000000
Japan,23.0000000000000000000000000000000000,5035000000000.0000000000000000000000000000000000,1036113189.6432941000000000000000000000000000,2121821.0000000000000000000000000000000000,223356.4878760769200000000000000000000000,5.4285716999610090000000000000000000,873011789149.5738500000000000000000000000000000,34873302315.0205920000000000000000000000000000,-20593205282.1312260000000000000000000000000000
Kazakhstan,24.0000000000000000000000000000000000,115300000000.0000000000000000000000000000000000,44973953.4488098990000000000000000000000000,14897720.0000000000000000000000000000000000,526045.0529961179700000000000000000000000,1.4396385164915426000000000000000000,77207871637.5599820000000000000000000000000000,4036636299.1285715000000000000000000000000000,-2385167862.7775021000000000000000000000000000
Korea Republic of,25.0000000000000000000000000000000000,834100000000.0000000000000000000000000000000000,371946236.7314527000000000000000000000000000,1042713.0000000000000000000000000000000000,159751.6928756781300000000000000000000000,5.7971763625183836000000000000000000,322034418580.7477400000000000000000000000000000,8863026238.3968830000000000000000000000000000,-5160022580.5700159000000000000000000000000000
Malawi,26.0000000000000000000000000000000000,4728000000.0000000000000000000000000000000000,224348612.8663857600000000000000000000000000,2139970.0000000000000000000000000000000000,130159.3407307244800000000000000000000000,11.8145777710539410000000000000000000,67635344417.6642460000000000000000000000000000,3545278407.6624131000000000000000000000000000,-2092114434.3357382000000000000000000000000000
Malaysia,27.0000000000000000000000000000000000,192900000000.0000000000000000000000000000000000,85965781.9197838900000000000000000000000000,4712024.0000000000000000000000000000000000,172541.4048775033400000000000000000000000,7.7709482183390843000000000000000000,50042086106.1483080000000000000000000000000000,1740468718.6320622000000000000000000000000000,-1031158543.7513926000000000000000000000000000
Mexico,28.0000000000000000000000000000000000,882400000000.0000000000000000000000000000000000,166443231.2611830500000000000000000000000000,8266321.0000000000000000000000000000000000,485892.7378317819100000000000000000000000,9.3155780922833866000000000000000000,244449532662.9112900000000000000000000000000000,10294353009.7976090000000000000000000000000000,-6077155044.6164351000000000000000000000000000
Morocco,29.0000000000000000000000000000000000,90910000000.0000000000000000000000000000000000,55126874.5768211110000000000000000000000000,3269011.0000000000000000000000000000000000,311125.7991206948600000000000000000000000,5.2123306433501675000000000000000000,72040754698.7637480000000000000000000000000000,2492611066.1213808000000000000000000000000000,-1454834324.7470715000000000000000000000000000
Burma,30.0000000000000000000000000000000000,35230000000.0000000000000000000000000000000000,207260639.2259437100000000000000000000000000,9188832.0000000000000000000000000000000000,663934.8357103158500000000000000000000000,17.0408020917491750000000000000000000,357251622770.9365200000000000000000000000000000,17366704945.8343660000000000000000000000000000,-10233969415.0169810000000000000000000000000000
Netherlands,31.0000000000000000000000000000000000,793400000000.0000000000000000000000000000000000,222201057.3501019500000000000000000000000000,326317.0000000000000000000000000000000000,73449.6481221201980000000000000000000000,5.0099055554568768000000000000000000,86375379507.5358580000000000000000000000000000,3136895727.2574949000000000000000000000000000,-1853340582.8861761000000000000000000000000000
Nigeria,32.0000000000000000000000000000000000,168600000000.0000000000000000000000000000000000,329592287.2066851900000000000000000000000000,10457500.0000000000000000000000000000000000,344914.3562653193400000000000000000000000,7.3220151906171376000000000000000000,289970978217.8703600000000000000000000000000000,13451045462.0103320000000000000000000000000000,-7974506116.8249426000000000000000000000000000
Pakistan,33.0000000000000000000000000000000000,161800000000.0000000000000000000000000000000000,1515910.3672640971000000000000000000000000,17232774.0000000000000000000000000000000000,16495620.8340681720000000000000000000000000,3.7788344481858562000000000000000000,342400860350.6526500000000000000000000000000000,15471787913.1953370000000000000000000000000000,-2850145182.4356060000000000000000000000000000
Philippines,34.0000000000000000000000000000000000,168300000000.0000000000000000000000000000000000,43221690.6531115470000000000000000000000000,8134583.0000000000000000000000000000000000,1689655.1805125799000000000000000000000000,5.3990033453946529000000000000000000,189582874454.8962100000000000000000000000000000,9305755348.9099617000000000000000000000000000,-5332691555.3564615000000000000000000000000000
Poland,35.0000000000000000000000000000000000,430900000000.0000000000000000000000000000000000,73609567.1397274140000000000000000000000000,3145488.0000000000000000000000000000000000,299107.1054894315900000000000000000000000,2.8153960386571009000000000000000000,58732049098.9423520000000000000000000000000000,4191456131.2686133000000000000000000000000000,-2483761246.1075821000000000000000000000000000
Romania,36.0000000000000000000000000000000000,161100000000.0000000000000000000000000000000000,161366763.6251145000000000000000000000000000,4844916.0000000000000000000000000000000000,162360.8847991543000000000000000000000000,2.0287873486058809000000000000000000,87807612168.8965000000000000000000000000000000,4425815681.3506737000000000000000000000000000,-2620438750.8079257000000000000000000000000000
Russia,37.0000000000000000000000000000000000,1223000000000.0000000000000000000000000000000000,260414566.9247984300000000000000000000000000,31026200.0000000000000000000000000000000000,426243.3385879979500000000000000000000000,0.8169525124087697600000000000000000,470843182996.8140300000000000000000000000000000,23789905777.2600940000000000000000000000000000,-14127163664.1647190000000000000000000000000000
South Africa,38.0000000000000000000000000000000000,283000000000.0000000000000000000000000000000000,183972908.3239831300000000000000000000000000,3731460.0000000000000000000000000000000000,159891.9494999220500000000000000000000000,3.5717791763994420000000000000000000,79362904773.6903530000000000000000000000000000,3921443951.2960639000000000000000000000000000,-2323174530.0210714000000000000000000000000000
Spain,39.0000000000000000000000000000000000,1456000000000.0000000000000000000000000000000000,159064211.0467703900000000000000000000000000,2448810.0000000000000000000000000000000000,190329.8802291745100000000000000000000000,4.2462257561557886000000000000000000,180500766712.5302400000000000000000000000000000,4650444806.1606836000000000000000000000000000,-2752831132.1370916000000000000000000000000000
Sudan,40.0000000000000000000000000000000000,54630000000.0000000000000000000000000000000000,2154156621.4436297000000000000000000000000000,696819.0000000000000000000000000000000000,6660.4848783411562000000000000000000000,11.5530037632045200000000000000000000,46420158965.0254820000000000000000000000000000,1685163792.2782586000000000000000000000000000,-1000518402.1284794000000000000000000000000000
United Republic of Tanzania,41.0000000000000000000000000000000000,21370000000.0000000000000000000000000000000000,542285920.3492184900000000000000000000000000,5288046.0000000000000000000000000000000000,71984.8358522626660000000000000000000000,3.8815986093693304000000000000000000,88663799709.0194240000000000000000000000000000,4575832386.7979374000000000000000000000000000,-2716886726.5769262000000000000000000000000000
Thailand,42.0000000000000000000000000000000000,263500000000.0000000000000000000000000000000000,137449515.5785212200000000000000000000000000,13994674.0000000000000000000000000000000000,553849.5198862630600000000000000000000000,9.9960357522957715000000000000000000,347738592895.7068500000000000000000000000000000,9371565945.3618469000000000000000000000000000,-5511032188.7317047000000000000000000000000000
Turkey,43.0000000000000000000000000000000000,614600000000.0000000000000000000000000000000000,58666726.7956196960000000000000000000000000,9616632.0000000000000000000000000000000000,2027526.6364553573000000000000000000000000,3.9269215486506543000000000000000000,425413081747.7688000000000000000000000000000000,18974364440.4494930000000000000000000000000000,-10908278227.6142830000000000000000000000000000
Uganda,44.0000000000000000000000000000000000,15800000000.0000000000000000000000000000000000,417880158.7456672200000000000000000000000000,3222183.0000000000000000000000000000000000,112732.8689805239300000000000000000000000,5.1999723511757399000000000000000000,111634282610.7236500000000000000000000000000000,5509803409.6931114000000000000000000000000000,-3266346038.4161406000000000000000000000000000
Ukraine,45.0000000000000000000000000000000000,117200000000.0000000000000000000000000000000000,56528674.8388288770000000000000000000000000,10985100.0000000000000000000000000000000000,741568.9804138485300000000000000000000000,1.8896101105563867000000000000000000,96765119483.2100370000000000000000000000000000,7597682003.6899271000000000000000000000000000,-4494115114.5416079000000000000000000000000000
United Kingdom,46.0000000000000000000000000000000000,2171000000000.0000000000000000000000000000000000,87362576.7197032420000000000000000000000000,2136209.0000000000000000000000000000000000,604071.0117748611400000000000000000000000,3.1745867468879831000000000000000000,110854248688.1794600000000000000000000000000000,10454651627.3545950000000000000000000000000000,-6151582266.2359600000000000000000000000000000
United States,47.0000000000000000000000000000000000,13860000000000.0000000000000000000000000000000000,324151059.7200495000000000000000000000000000,88779686.0000000000000000000000000000000000,2000426.5711141997000000000000000000000000,1.5955814987471806000000000000000000,2142790887472.0178000000000000000000000000000000,95029993627.4061280000000000000000000000000000,-56354914221.5104520000000000000000000000000000
Uzbekistan,48.0000000000000000000000000000000000,32820000000.0000000000000000000000000000000000,47612321.8642457430000000000000000000000000,3027000.0000000000000000000000000000000000,828587.1581514641900000000000000000000000,7.7542253825906640000000000000000000,131087182624.2532500000000000000000000000000000,6536047545.9445171000000000000000000000000000,-3710113876.1726160000000000000000000000000000
Venezuela,49.0000000000000000000000000000000000,329400000000.0000000000000000000000000000000000,1494042564.0197439000000000000000000000000000,1315997.0000000000000000000000000000000000,26258.4926086755510000000000000000000000,36.5108316922403020000000000000000000,168412928379.6718700000000000000000000000000000,4611840278.1419802000000000000000000000000000,-2735096148.2520719000000000000000000000000000
Viet Nam,50.0000000000000000000000000000000000,97180000000.0000000000000000000000000000000000,111544067.9258971800000000000000000000000000,9081144.0000000000000000000000000000000000,1168463.0055473284000000000000000000000000,10.3550625530642930000000000000000000,485943281810.3142700000000000000000000000000000,16547578979.7510280000000000000000000000000000,-9580791997.0509853000000000000000000000000000
