Country name,Country ID,GDP (raw),Lambda-Wage,Land in ag (raw),Land in ag (equilibrium),Crop price index (equilibrium),Welfare numerator,Crop value,OG term
Algeria,1.0000000000000000000000000000000000,138100000000.0000000000000000000000000000000000,89146691.2062467040000000000000000000000000,1974981.0000000000000000000000000000000000,391218.7297001662100000000000000000000000,2.6802910508492581000000000000000000,121191988852.8279400000000000000000000000000000,5218969375.6170998000000000000000000000000000,-3040808531.3544426000000000000000000000000000
Argentina,2.0000000000000000000000000000000000,307100000000.0000000000000000000000000000000000,159647830.3625468000000000000000000000000000,23376930.0000000000000000000000000000000000,621728.6288806076600000000000000000000000,1.8898321015683024000000000000000000,191468075845.7174400000000000000000000000000000,13448834398.8435360000000000000000000000000000,-7975683049.0130253000000000000000000000000000
Australia,3.0000000000000000000000000000000000,924200000000.0000000000000000000000000000000000,228614731.2112455700000000000000000000000000,14513051.0000000000000000000000000000000000,350016.6565991538200000000000000000000000,4.1505044854343254000000000000000000,86103618219.8001560000000000000000000000000000,10346012755.5527740000000000000000000000000000,-6140705897.9893980000000000000000000000000000
Bangladesh,4.0000000000000000000000000000000000,89360000000.0000000000000000000000000000000000,11817883.0205535960000000000000000000000000,12524945.0000000000000000000000000000000000,6012693.4290765114000000000000000000000000,6.0300701306622120000000000000000000,267670662978.8060600000000000000000000000000000,12169502793.5069160000000000000000000000000000,-6140009621.1838608000000000000000000000000000
Brazil,5.0000000000000000000000000000000000,1622000000000.0000000000000000000000000000000000,278403217.9349598300000000000000000000000000,50819507.0000000000000000000000000000000000,1323034.9901753068000000000000000000000000,4.3833883452262290000000000000000000,853879177382.2008100000000000000000000000000000,45028007451.5501480000000000000000000000000000,-26727317878.2749290000000000000000000000000000
Cameroon,6.0000000000000000000000000000000000,22180000000.0000000000000000000000000000000000,521315845.8214793800000000000000000000000000,1531602.0000000000000000000000000000000000,35873.1809030571240000000000000000000000,2.7964999596125311000000000000000000,39540194318.1639560000000000000000000000000000,2188544502.0103521000000000000000000000000000,-1299678381.0779612000000000000000000000000000
Canada,7.0000000000000000000000000000000000,1338000000000.0000000000000000000000000000000000,58102415.9207462970000000000000000000000000,12335691.0000000000000000000000000000000000,764045.1481043697600000000000000000000000,1.2112272816204790000000000000000000,83165259650.5090180000000000000000000000000000,7779713765.7775373000000000000000000000000000,-4605175981.5308170000000000000000000000000000
China,8.0000000000000000000000000000000000,4991000000000.0000000000000000000000000000000000,55039447.1157314930000000000000000000000000,107634087.0000000000000000000000000000000000,28307297.1163165310000000000000000000000000,3.3495622743883833000000000000000000,6163141822221.4268000000000000000000000000000000,245859240765.4189100000000000000000000000000000,-136396532280.8944200000000000000000000000000000
Colombia,9.0000000000000000000000000000000000,236200000000.0000000000000000000000000000000000,333228832.7427340100000000000000000000000000,2355522.0000000000000000000000000000000000,193032.0632530042500000000000000000000000,8.6623522545854090000000000000000000,110023507259.8073600000000000000000000000000000,7529884440.9870272000000000000000000000000000,-4469439779.6183167000000000000000000000000000
Democratic Republic of the Congo,10.0000000000000000000000000000000000,11200000000.0000000000000000000000000000000000,1019132494.5909301000000000000000000000000000,2606498.0000000000000000000000000000000000,14931.1649994237090000000000000000000000,4.1123289704001467000000000000000000,34347085364.7093770000000000000000000000000000,1778772112.7079449000000000000000000000000000,-1056551862.6414243000000000000000000000000000
Cote d'Ivoire,11.0000000000000000000000000000000000,23040000000.0000000000000000000000000000000000,331624288.1850895300000000000000000000000000,1554018.0000000000000000000000000000000000,49790.2316244778340000000000000000000000,3.5799241838760132000000000000000000,29586081965.0147170000000000000000000000000000,1940211647.3902807000000000000000000000000000,-1151995494.1965399000000000000000000000000000
Ecuador,12.0000000000000000000000000000000000,52020000000.0000000000000000000000000000000000,146807231.6493865300000000000000000000000000,1440810.0000000000000000000000000000000000,154444.4460786014400000000000000000000000,7.3309140044375951000000000000000000,36010759271.8651660000000000000000000000000000,2657846249.1794338000000000000000000000000000,-1573920103.2122409000000000000000000000000000
Egypt,13.0000000000000000000000000000000000,189000000000.0000000000000000000000000000000000,0.0000000000000000000000000000000000,3567772.0000000000000000000000000000000000,3567772.0000000000000000000000000000000000,15.3296630887103740000000000000000000,257950822843.9176000000000000000000000000000000,414619599.4668951000000000000000000000000000,0.0000000000000000000000000000000000
Ethiopia,14.0000000000000000000000000000000000,31960000000.0000000000000000000000000000000000,191543763.8450256300000000000000000000000000,3414428.0000000000000000000000000000000000,190432.6756368120300000000000000000000000,3.3757639008065632000000000000000000,87340150641.3755190000000000000000000000000000,4306631378.4308434000000000000000000000000000,-2554644588.9518638000000000000000000000000000
France,15.0000000000000000000000000000000000,2620000000000.0000000000000000000000000000000000,250669565.1379721200000000000000000000000000,7090717.0000000000000000000000000000000000,231328.5600461557300000000000000000000000,3.6234643580816583000000000000000000,107298263172.8588700000000000000000000000000000,9918385697.9282265000000000000000000000000000,-5881279021.1322641000000000000000000000000000
Germany,16.0000000000000000000000000000000000,3299000000000.0000000000000000000000000000000000,273914788.1468515400000000000000000000000000,3955389.0000000000000000000000000000000000,91480.6007565801700000000000000000000000,4.4717763590555997000000000000000000,186510838113.7805200000000000000000000000000000,4662029178.6546059000000000000000000000000000,-2766490476.8597951000000000000000000000000000
Ghana,17.0000000000000000000000000000000000,25980000000.0000000000000000000000000000000000,738170132.0875968900000000000000000000000000,1884986.0000000000000000000000000000000000,33379.7548734945090000000000000000000000,0.8847041019001277200000000000000000,61972726093.3533250000000000000000000000000000,2900907510.5575471000000000000000000000000000,-1722498621.0534108000000000000000000000000000
Greece,18.0000000000000000000000000000000000,321800000000.0000000000000000000000000000000000,133871570.1872596900000000000000000000000000,1262172.0000000000000000000000000000000000,158831.0982369041600000000000000000000000,2.6569883419543121000000000000000000,68833363804.7538300000000000000000000000000000,3316765788.6117520000000000000000000000000000,-1944147931.6008644000000000000000000000000000
India,19.0000000000000000000000000000000000,1361000000000.0000000000000000000000000000000000,42389160.6767752690000000000000000000000000,105647700.0000000000000000000000000000000000,19206370.5714954850000000000000000000000000,2.5727780634399418000000000000000000,2460432117813.9497000000000000000000000000000000,108975288213.9335500000000000000000000000000000,-62678639301.3701400000000000000000000000000000
Indonesia,20.0000000000000000000000000000000000,539600000000.0000000000000000000000000000000000,139575550.0842072400000000000000000000000000,23533949.0000000000000000000000000000000000,2451018.7666215338000000000000000000000000,5.4613140642943252000000000000000000,828635023004.0954600000000000000000000000000000,40385866824.3895030000000000000000000000000000,-23857826373.9571420000000000000000000000000000
Iran (Islamic Republic of),21.0000000000000000000000000000000000,331000000000.0000000000000000000000000000000000,15336450.2792857770000000000000000000000000,7980034.0000000000000000000000000000000000,3575157.7339837938000000000000000000000000,11.0456012869216860000000000000000000,210101612306.3046900000000000000000000000000000,9410866443.8401794000000000000000000000000000,-5033776775.8774586000000000000000000000000000
Italy,22.0000000000000000000000000000000000,2111000000000.0000000000000000000000000000000000,158776625.1047242000000000000000000000000000,3278433.0000000000000000000000000000000000,361227.6696533003700000000000000000000000,4.3739392269835031000000000000000000,235585695701.9680500000000000000000000000000000,9519152192.3142662000000000000000000000000000,-5595865821.0667658000000000000000000000000000
Japan,23.0000000000000000000000000000000000,5035000000000.0000000000000000000000000000000000,1036113189.6432941000000000000000000000000000,2121821.0000000000000000000000000000000000,221696.5405291372200000000000000000000000,5.3976476733143066000000000000000000,872825506352.1314700000000000000000000000000000,33854282988.7941020000000000000000000000000000,-19986444566.1928410000000000000000000000000000
Kazakhstan,24.0000000000000000000000000000000000,115300000000.0000000000000000000000000000000000,44973953.4488098990000000000000000000000000,14897720.0000000000000000000000000000000000,498218.7453936135300000000000000000000000,0.9787866576668152700000000000000000,78583624878.6698460000000000000000000000000000,3967650530.5451393000000000000000000000000000,-2351764127.2082167000000000000000000000000000
Korea Republic of,25.0000000000000000000000000000000000,834100000000.0000000000000000000000000000000000,371946236.7314527000000000000000000000000000,1042713.0000000000000000000000000000000000,173545.2587989189200000000000000000000000,4.7257923884510715000000000000000000,325459188532.3758500000000000000000000000000000,9588587010.9877033000000000000000000000000000,-5603321257.2529736000000000000000000000000000
Malawi,26.0000000000000000000000000000000000,4728000000.0000000000000000000000000000000000,224348612.8663857600000000000000000000000000,2139970.0000000000000000000000000000000000,132031.6471484948100000000000000000000000,5.5887135307927771000000000000000000,70321914818.4758610000000000000000000000000000,3584980991.8741312000000000000000000000000000,-2119327806.4815238000000000000000000000000000
Malaysia,27.0000000000000000000000000000000000,192900000000.0000000000000000000000000000000000,85965781.9197838900000000000000000000000000,4712024.0000000000000000000000000000000000,253084.2331147498300000000000000000000000,5.8257192759883392000000000000000000,51139021715.9668660000000000000000000000000000,2557976754.1241069000000000000000000000000000,-1514005707.1244833000000000000000000000000000
Mexico,28.0000000000000000000000000000000000,882400000000.0000000000000000000000000000000000,166443231.2611830500000000000000000000000000,8266321.0000000000000000000000000000000000,539848.3723572123600000000000000000000000,9.0077320400604659000000000000000000,245252434960.8692600000000000000000000000000000,11314402891.9793210000000000000000000000000000,-6698383723.4448767000000000000000000000000000
Morocco,29.0000000000000000000000000000000000,90910000000.0000000000000000000000000000000000,55126874.5768211110000000000000000000000000,3269011.0000000000000000000000000000000000,519310.3293593673200000000000000000000000,3.5633836213629415000000000000000000,74106915709.8081510000000000000000000000000000,4121287385.7981558000000000000000000000000000,-2411359453.7499547000000000000000000000000000
Burma,30.0000000000000000000000000000000000,35230000000.0000000000000000000000000000000000,207260639.2259437100000000000000000000000000,9188832.0000000000000000000000000000000000,667101.7599801747100000000000000000000000,12.1630415286387250000000000000000000,363261241154.7984600000000000000000000000000000,17461702028.4234050000000000000000000000000000,-10293548935.6525290000000000000000000000000000
Netherlands,31.0000000000000000000000000000000000,793400000000.0000000000000000000000000000000000,222201057.3501019500000000000000000000000000,326317.0000000000000000000000000000000000,40593.1628674251840000000000000000000000,5.4469501613318192000000000000000000,85429267922.5355830000000000000000000000000000,1717720525.0754030000000000000000000000000000,-1016813921.4257995000000000000000000000000000
Nigeria,32.0000000000000000000000000000000000,168600000000.0000000000000000000000000000000000,329592287.2066851900000000000000000000000000,10457500.0000000000000000000000000000000000,356052.8710384581900000000000000000000000,3.7938146746505210000000000000000000,299320358467.2379800000000000000000000000000000,13865683186.0707590000000000000000000000000000,-8223241146.2816124000000000000000000000000000
Pakistan,33.0000000000000000000000000000000000,161800000000.0000000000000000000000000000000000,1515910.3672640971000000000000000000000000,17232774.0000000000000000000000000000000000,14263105.5277838280000000000000000000000000,3.2233303112763800000000000000000000,344702510095.1261600000000000000000000000000000,14989236016.6082230000000000000000000000000000,-2546191896.0983677000000000000000000000000000
Philippines,34.0000000000000000000000000000000000,168300000000.0000000000000000000000000000000000,43221690.6531115470000000000000000000000000,8134583.0000000000000000000000000000000000,2215457.5015675956000000000000000000000000,4.2700999866802629000000000000000000,193061386106.8490600000000000000000000000000000,12335813081.5447430000000000000000000000000000,-7034094709.3602695000000000000000000000000000
Poland,35.0000000000000000000000000000000000,430900000000.0000000000000000000000000000000000,73609567.1397274140000000000000000000000000,3145488.0000000000000000000000000000000000,276099.8136152044200000000000000000000000,2.8007977172321796000000000000000000,58611377614.8970030000000000000000000000000000,3859317985.8750877000000000000000000000000000,-2287305830.6547303000000000000000000000000000
Romania,36.0000000000000000000000000000000000,161100000000.0000000000000000000000000000000000,161366763.6251145000000000000000000000000000,4844916.0000000000000000000000000000000000,171717.9238064572300000000000000000000000,1.5160439131728549000000000000000000,89129550677.2376400000000000000000000000000000,4661965161.2523365000000000000000000000000000,-2759724750.5338545000000000000000000000000000
Russia,37.0000000000000000000000000000000000,1223000000000.0000000000000000000000000000000000,260414566.9247984300000000000000000000000000,31026200.0000000000000000000000000000000000,443602.1765542912200000000000000000000000,1.3568669184245714000000000000000000,459881811812.8115200000000000000000000000000000,21916771931.3396760000000000000000000000000000,-13009881685.4325600000000000000000000000000000
South Africa,38.0000000000000000000000000000000000,283000000000.0000000000000000000000000000000000,183972908.3239831300000000000000000000000000,3731460.0000000000000000000000000000000000,163089.0841690694500000000000000000000000,2.2644500939142342000000000000000000,81169377611.2274170000000000000000000000000000,3973279556.7668715000000000000000000000000000,-2356862027.0935154000000000000000000000000000
Spain,39.0000000000000000000000000000000000,1456000000000.0000000000000000000000000000000000,159064211.0467703900000000000000000000000000,2448810.0000000000000000000000000000000000,293159.8152263082400000000000000000000000,4.4997692900454975000000000000000000,181006549953.6685500000000000000000000000000000,7123838768.6288462000000000000000000000000000,-4213796762.8512516000000000000000000000000000
Sudan,40.0000000000000000000000000000000000,54630000000.0000000000000000000000000000000000,2154156621.4436297000000000000000000000000000,696819.0000000000000000000000000000000000,10726.5168965789670000000000000000000000,2.8654947410403016000000000000000000,50343370983.9894260000000000000000000000000000,2718710854.3754816000000000000000000000000000,-1614812263.9878685000000000000000000000000000
United Republic of Tanzania,41.0000000000000000000000000000000000,21370000000.0000000000000000000000000000000000,542285920.3492184900000000000000000000000000,5288046.0000000000000000000000000000000000,71297.7989071569030000000000000000000000,2.7897974589830703000000000000000000,90093029078.6191100000000000000000000000000000,4538370940.8947392000000000000000000000000000,-2695036645.2747645000000000000000000000000000
Thailand,42.0000000000000000000000000000000000,263500000000.0000000000000000000000000000000000,137449515.5785212200000000000000000000000000,13994674.0000000000000000000000000000000000,969257.6482571760400000000000000000000000,3.6689462097522796000000000000000000,367791882492.0681200000000000000000000000000000,16507204239.8627970000000000000000000000000000,-9611230910.0278358000000000000000000000000000
Turkey,43.0000000000000000000000000000000000,614600000000.0000000000000000000000000000000000,58666726.7956196960000000000000000000000000,9616632.0000000000000000000000000000000000,2036078.6896216923000000000000000000000000,3.8586913462554606000000000000000000,425646988508.9209000000000000000000000000000000,18857655891.4902310000000000000000000000000000,-10900625467.6671870000000000000000000000000000
Uganda,44.0000000000000000000000000000000000,15800000000.0000000000000000000000000000000000,417880158.7456672200000000000000000000000000,3222183.0000000000000000000000000000000000,111684.2124371063500000000000000000000000,4.1747142866579932000000000000000000,112826074127.7296100000000000000000000000000000,5456450276.4320326000000000000000000000000000,-3235428212.2033553000000000000000000000000000
Ukraine,45.0000000000000000000000000000000000,117200000000.0000000000000000000000000000000000,56528674.8388288770000000000000000000000000,10985100.0000000000000000000000000000000000,805007.6164907891100000000000000000000000,1.6179416148059649000000000000000000,97722658129.7506260000000000000000000000000000,8218783009.9401388000000000000000000000000000,-4863351346.4501753000000000000000000000000000
United Kingdom,46.0000000000000000000000000000000000,2171000000000.0000000000000000000000000000000000,87362576.7197032420000000000000000000000000,2136209.0000000000000000000000000000000000,260798.3984815951800000000000000000000000,3.9125181568259970000000000000000000,107263503522.2619200000000000000000000000000000,4412884840.2859879000000000000000000000000000,-2599716894.3426676000000000000000000000000000
United States,47.0000000000000000000000000000000000,13860000000000.0000000000000000000000000000000000,324151059.7200495000000000000000000000000000,88779686.0000000000000000000000000000000000,1920847.7192308789000000000000000000000000,1.5332257261947142000000000000000000,2144442022142.7800000000000000000000000000000000,90409511779.7891540000000000000000000000000000,-53616473242.6416320000000000000000000000000000
Uzbekistan,48.0000000000000000000000000000000000,32820000000.0000000000000000000000000000000000,47612321.8642457430000000000000000000000000,3027000.0000000000000000000000000000000000,843505.3333663353700000000000000000000000,7.4220254968133705000000000000000000,131347812064.5089300000000000000000000000000000,6545948436.5573578000000000000000000000000000,-3746565002.0255694000000000000000000000000000
Venezuela,49.0000000000000000000000000000000000,329400000000.0000000000000000000000000000000000,1494042564.0197439000000000000000000000000000,1315997.0000000000000000000000000000000000,49171.8834229509520000000000000000000000,10.6384576462950270000000000000000000,181248179275.0838000000000000000000000000000000,8641715970.4182968000000000000000000000000000,-5131935118.6439667000000000000000000000000000
Viet Nam,50.0000000000000000000000000000000000,97180000000.0000000000000000000000000000000000,111544067.9258971800000000000000000000000000,9081144.0000000000000000000000000000000000,1316924.5991383202000000000000000000000000,7.3996690702126244000000000000000000,494782546962.9967700000000000000000000000000000,18810553081.9931370000000000000000000000000000,-10842487762.9365410000000000000000000000000000
