Country name,Country ID,GDP (raw),Lambda-Wage,Land in ag (raw),Land in ag (equilibrium),Crop price index (equilibrium),Welfare numerator,Crop value,OG term
Algeria,1.0000000000000000000000000000000000,138100000000.0000000000000000000000000000000000,89146691.2062467040000000000000000000000000,1974981.0000000000000000000000000000000000,386911.5903641887100000000000000000000000,3.0870485211830214000000000000000000,120347381923.3297900000000000000000000000000000,5161288438.8884020000000000000000000000000000,-3007320861.5298991000000000000000000000000000
Argentina,2.0000000000000000000000000000000000,307100000000.0000000000000000000000000000000000,159647830.3625468000000000000000000000000000,23376930.0000000000000000000000000000000000,582592.5083726953000000000000000000000000,2.0186709679138266000000000000000000,190545627339.7164000000000000000000000000000000,12601898434.1187610000000000000000000000000000,-7474102157.5970020000000000000000000000000000
Australia,3.0000000000000000000000000000000000,924200000000.0000000000000000000000000000000000,228614731.2112455700000000000000000000000000,14513051.0000000000000000000000000000000000,330136.8501682872900000000000000000000000,4.4211971197542637000000000000000000,85605421956.4100650000000000000000000000000000,9766136326.0228977000000000000000000000000000,-5796682102.5806179000000000000000000000000000
Bangladesh,4.0000000000000000000000000000000000,89360000000.0000000000000000000000000000000000,11817883.0205535960000000000000000000000000,12524945.0000000000000000000000000000000000,6014684.1595493574000000000000000000000000,6.5977198632612630000000000000000000,266525377812.5734600000000000000000000000000000,12176380937.1222380000000000000000000000000000,-6142504329.0956669000000000000000000000000000
Brazil,5.0000000000000000000000000000000000,1622000000000.0000000000000000000000000000000000,278403217.9349598300000000000000000000000000,50819507.0000000000000000000000000000000000,1267510.1634844539000000000000000000000000,4.6477206258824353000000000000000000,850879960888.5765400000000000000000000000000000,43149879488.3149870000000000000000000000000000,-25613026317.5335390000000000000000000000000000
Cameroon,6.0000000000000000000000000000000000,22180000000.0000000000000000000000000000000000,521315845.8214793800000000000000000000000000,1531602.0000000000000000000000000000000000,35840.7507467813560000000000000000000000,3.2256700808356991000000000000000000,39254730401.2994460000000000000000000000000000,2186591156.4913507000000000000000000000000000,-1298518513.8650737000000000000000000000000000
Canada,7.0000000000000000000000000000000000,1338000000000.0000000000000000000000000000000000,58102415.9207462970000000000000000000000000,12335691.0000000000000000000000000000000000,824100.1527407821300000000000000000000000,1.2154469149505704000000000000000000,83408236552.6141050000000000000000000000000000,8406671155.3041906000000000000000000000000000,-4975830248.1782837000000000000000000000000000
China,8.0000000000000000000000000000000000,4991000000000.0000000000000000000000000000000000,55039447.1157314930000000000000000000000000,107634087.0000000000000000000000000000000000,28137898.8068991900000000000000000000000000,3.5335853249742439000000000000000000,6148950762262.6602000000000000000000000000000000,244266186074.7643700000000000000000000000000000,-135528210824.4393800000000000000000000000000000
Colombia,9.0000000000000000000000000000000000,236200000000.0000000000000000000000000000000000,333228832.7427340100000000000000000000000000,2355522.0000000000000000000000000000000000,192678.8716408620500000000000000000000000,8.8305103945664580000000000000000000,109910969010.9073800000000000000000000000000000,7515564466.5739527000000000000000000000000000,-4460979640.0752850000000000000000000000000000
Democratic Republic of the Congo,10.0000000000000000000000000000000000,11200000000.0000000000000000000000000000000000,1019132494.5909301000000000000000000000000000,2606498.0000000000000000000000000000000000,14929.6438144710340000000000000000000000,4.4061155942575345000000000000000000,34224190692.0838280000000000000000000000000000,1778673921.2070296000000000000000000000000000,-1056493606.1303226000000000000000000000000000
Cote d'Ivoire,11.0000000000000000000000000000000000,23040000000.0000000000000000000000000000000000,331624288.1850895300000000000000000000000000,1554018.0000000000000000000000000000000000,49147.0920108904470000000000000000000000,3.9674309513072044000000000000000000,29419065710.0924150000000000000000000000000000,1915200229.4832797000000000000000000000000000,-1137155320.2607024000000000000000000000000000
Ecuador,12.0000000000000000000000000000000000,52020000000.0000000000000000000000000000000000,146807231.6493865300000000000000000000000000,1440810.0000000000000000000000000000000000,152474.1435939170200000000000000000000000,7.4751399983750062000000000000000000,35959718784.7755810000000000000000000000000000,2623687098.7995667000000000000000000000000000,-1553766213.9210882000000000000000000000000000
Egypt,13.0000000000000000000000000000000000,189000000000.0000000000000000000000000000000000,0.0000000000000000000000000000000000,3567772.0000000000000000000000000000000000,3567771.9999999995000000000000000000000000,14.7811433700223350000000000000000000,258401061375.5775500000000000000000000000000000,385365563.9720916200000000000000000000000000,-0.0000000000000000000000000000000000
Ethiopia,14.0000000000000000000000000000000000,31960000000.0000000000000000000000000000000000,191543763.8450256300000000000000000000000000,3414428.0000000000000000000000000000000000,189286.0245688016300000000000000000000000,3.6679679726024363000000000000000000,86973565995.7522430000000000000000000000000000,4280521595.0905509000000000000000000000000000,-2539189163.1534214000000000000000000000000000
France,15.0000000000000000000000000000000000,2620000000000.0000000000000000000000000000000000,250669565.1379721200000000000000000000000000,7090717.0000000000000000000000000000000000,228828.1563219507800000000000000000000000,3.8780933562194329000000000000000000,106904885602.4334000000000000000000000000000000,9810484132.9101124000000000000000000000000000,-5817403117.6702251000000000000000000000000000
Germany,16.0000000000000000000000000000000000,3299000000000.0000000000000000000000000000000000,273914788.1468515400000000000000000000000000,3955389.0000000000000000000000000000000000,92541.8081920390100000000000000000000000,4.7865444173916396000000000000000000,185917437814.3425300000000000000000000000000000,4714499372.3516674000000000000000000000000000,-2797579122.3090215000000000000000000000000000
Ghana,17.0000000000000000000000000000000000,25980000000.0000000000000000000000000000000000,738170132.0875968900000000000000000000000000,1884986.0000000000000000000000000000000000,33388.5463449344680000000000000000000000,0.9960935012993905600000000000000000,61628355744.6309130000000000000000000000000000,2901811973.4682245000000000000000000000000000,-1723035476.6931283000000000000000000000000000
Greece,18.0000000000000000000000000000000000,321800000000.0000000000000000000000000000000000,133871570.1872596900000000000000000000000000,1262172.0000000000000000000000000000000000,158194.2471230457000000000000000000000000,2.9411132111650482000000000000000000,68484223116.0498730000000000000000000000000000,3302935202.1955404000000000000000000000000000,-1936151680.2743614000000000000000000000000000
India,19.0000000000000000000000000000000000,1361000000000.0000000000000000000000000000000000,42389160.6767752690000000000000000000000000,105647700.0000000000000000000000000000000000,19117879.2658996130000000000000000000000000,2.7948747492171186000000000000000000,2451634263624.8657000000000000000000000000000000,108403448448.7014800000000000000000000000000000,-62367345505.4567790000000000000000000000000000
Indonesia,20.0000000000000000000000000000000000,539600000000.0000000000000000000000000000000000,139575550.0842072400000000000000000000000000,23533949.0000000000000000000000000000000000,2430744.5110397111000000000000000000000000,5.8388272785252937000000000000000000,825988005333.0585900000000000000000000000000000,40047380819.8164600000000000000000000000000000,-23659144199.2425730000000000000000000000000000
Iran (Islamic Republic of),21.0000000000000000000000000000000000,331000000000.0000000000000000000000000000000000,15336450.2792857770000000000000000000000000,7980034.0000000000000000000000000000000000,3542981.1499395850000000000000000000000000,11.9268107511771240000000000000000000,209243645995.9603900000000000000000000000000000,9307630331.4618912000000000000000000000000000,-4985673995.0598431000000000000000000000000000
Italy,22.0000000000000000000000000000000000,2111000000000.0000000000000000000000000000000000,158776625.1047242000000000000000000000000000,3278433.0000000000000000000000000000000000,361502.0986925088800000000000000000000000,4.7251693351142752000000000000000000,234721762834.7085900000000000000000000000000000,9524718907.3665848000000000000000000000000000,-5599460738.6063547000000000000000000000000000
Japan,23.0000000000000000000000000000000000,5035000000000.0000000000000000000000000000000000,1036113189.6432941000000000000000000000000000,2121821.0000000000000000000000000000000000,213839.2081577449600000000000000000000000,5.5720892484556961000000000000000000,871068664597.1995800000000000000000000000000000,32651303063.6064190000000000000000000000000000,-19282157737.0269930000000000000000000000000000
Kazakhstan,24.0000000000000000000000000000000000,115300000000.0000000000000000000000000000000000,44973953.4488098990000000000000000000000000,14897720.0000000000000000000000000000000000,496313.3563663318100000000000000000000000,1.1236699789313533000000000000000000,78073458963.8974760000000000000000000000000000,3954945770.8561368000000000000000000000000000,-2344284632.9857173000000000000000000000000000
Korea Republic of,25.0000000000000000000000000000000000,834100000000.0000000000000000000000000000000000,371946236.7314527000000000000000000000000000,1042713.0000000000000000000000000000000000,172776.0581555471600000000000000000000000,4.9464417043587909000000000000000000,324735296779.0229500000000000000000000000000000,9540833702.1552639000000000000000000000000000,-5577659928.7893190000000000000000000000000000
Malawi,26.0000000000000000000000000000000000,4728000000.0000000000000000000000000000000000,224348612.8663857600000000000000000000000000,2139970.0000000000000000000000000000000000,131866.4576623763400000000000000000000000,6.1876716823069220000000000000000000,69956323970.6390080000000000000000000000000000,3580375067.7295542000000000000000000000000000,-2116629886.0184662000000000000000000000000000
Malaysia,27.0000000000000000000000000000000000,192900000000.0000000000000000000000000000000000,85965781.9197838900000000000000000000000000,4712024.0000000000000000000000000000000000,247393.6849841959500000000000000000000000,5.9024975067754362000000000000000000,51080626135.1201780000000000000000000000000000,2500066237.3315907000000000000000000000000000,-1479849331.5519469000000000000000000000000000
Mexico,28.0000000000000000000000000000000000,882400000000.0000000000000000000000000000000000,166443231.2611830500000000000000000000000000,8266321.0000000000000000000000000000000000,563904.6508784858700000000000000000000000,7.4233230425573904000000000000000000,247789612394.0786100000000000000000000000000000,11826810637.2101100000000000000000000000000000,-6999837214.7303505000000000000000000000000000
Morocco,29.0000000000000000000000000000000000,90910000000.0000000000000000000000000000000000,55126874.5768211110000000000000000000000000,3269011.0000000000000000000000000000000000,513861.1691730956700000000000000000000000,3.9124730138499939000000000000000000,73745876650.0206300000000000000000000000000000,4077313581.4868464000000000000000000000000000,-2385860291.6961370000000000000000000000000000
Burma,30.0000000000000000000000000000000000,35230000000.0000000000000000000000000000000000,207260639.2259437100000000000000000000000000,9188832.0000000000000000000000000000000000,666027.0917191301700000000000000000000000,13.6667327661022920000000000000000000,361185118048.1662600000000000000000000000000000,17435720056.2567860000000000000000000000000000,-10278592682.3864960000000000000000000000000000
Netherlands,31.0000000000000000000000000000000000,793400000000.0000000000000000000000000000000000,222201057.3501019500000000000000000000000000,326317.0000000000000000000000000000000000,40031.7200437305510000000000000000000000,5.7615366873080953000000000000000000,85175455795.5113220000000000000000000000000000,1693729257.0899634000000000000000000000000000,-1002634824.2259260000000000000000000000000000
Nigeria,32.0000000000000000000000000000000000,168600000000.0000000000000000000000000000000000,329592287.2066851900000000000000000000000000,10457500.0000000000000000000000000000000000,355892.3784154825800000000000000000000000,3.8872801210857140000000000000000000,298977667125.6837200000000000000000000000000000,13859435423.0213850000000000000000000000000000,-8219760713.7390451000000000000000000000000000
Pakistan,33.0000000000000000000000000000000000,161800000000.0000000000000000000000000000000000,1515910.3672640971000000000000000000000000,17232774.0000000000000000000000000000000000,14209988.1163899560000000000000000000000000,3.2504880882610356000000000000000000,344569539978.1936000000000000000000000000000000,14978959148.1012630000000000000000000000000000,-2538008292.1241431000000000000000000000000000
Philippines,34.0000000000000000000000000000000000,168300000000.0000000000000000000000000000000000,43221690.6531115470000000000000000000000000,8134583.0000000000000000000000000000000000,2221120.7515285471000000000000000000000000,4.4174524549442111000000000000000000,192764834872.9206500000000000000000000000000000,12368378538.2329430000000000000000000000000000,-7052286468.4929333000000000000000000000000000
Poland,35.0000000000000000000000000000000000,430900000000.0000000000000000000000000000000000,73609567.1397274140000000000000000000000000,3145488.0000000000000000000000000000000000,261365.0202753348900000000000000000000000,3.2064934103313498000000000000000000,58136142127.3441310000000000000000000000000000,3652161277.9049273000000000000000000000000000,-2164779253.3374586000000000000000000000000000
Romania,36.0000000000000000000000000000000000,161100000000.0000000000000000000000000000000000,161366763.6251145000000000000000000000000000,4844916.0000000000000000000000000000000000,169070.6245554113700000000000000000000000,1.7045989976063205000000000000000000,88607084155.8692470000000000000000000000000000,4589834430.2591114000000000000000000000000000,-2717120467.1665030000000000000000000000000000
Russia,37.0000000000000000000000000000000000,1223000000000.0000000000000000000000000000000000,260414566.9247984300000000000000000000000000,31026200.0000000000000000000000000000000000,437025.5486757940400000000000000000000000,1.4866307390918110000000000000000000,457900306790.1385500000000000000000000000000000,21561542212.0618020000000000000000000000000000,-12798951616.0401820000000000000000000000000000
South Africa,38.0000000000000000000000000000000000,283000000000.0000000000000000000000000000000000,183972908.3239831300000000000000000000000000,3731460.0000000000000000000000000000000000,162380.3192751821200000000000000000000000,2.4528548394540910000000000000000000,80848680932.4485780000000000000000000000000000,3955912636.4209542000000000000000000000000000,-2346577441.0955706000000000000000000000000000
Spain,39.0000000000000000000000000000000000,1456000000000.0000000000000000000000000000000000,159064211.0467703900000000000000000000000000,2448810.0000000000000000000000000000000000,294678.0201198741600000000000000000000000,4.8589682459364729000000000000000000,180351033087.4281000000000000000000000000000000,7161202519.5165577000000000000000000000000000,-4235758504.3703814000000000000000000000000000
Sudan,40.0000000000000000000000000000000000,54630000000.0000000000000000000000000000000000,2154156621.4436297000000000000000000000000000,696819.0000000000000000000000000000000000,10687.0127054334680000000000000000000000,3.0781801396751804000000000000000000,50159348127.6873470000000000000000000000000000,2708658125.7710843000000000000000000000000000,-1608841187.3450572000000000000000000000000000
United Republic of Tanzania,41.0000000000000000000000000000000000,21370000000.0000000000000000000000000000000000,542285920.3492184900000000000000000000000000,5288046.0000000000000000000000000000000000,70948.5595034621360000000000000000000000,2.9604234770360840000000000000000000,89824319406.0244600000000000000000000000000000,4516191810.2831182000000000000000000000000000,-2681875258.0963554000000000000000000000000000
Thailand,42.0000000000000000000000000000000000,263500000000.0000000000000000000000000000000000,137449515.5785212200000000000000000000000000,13994674.0000000000000000000000000000000000,973765.4784978707300000000000000000000000,3.8754225414191086000000000000000000,366904246708.8053600000000000000000000000000000,16596570376.2639310000000000000000000000000000,-9658625198.8549461000000000000000000000000000
Turkey,43.0000000000000000000000000000000000,614600000000.0000000000000000000000000000000000,58666726.7956196960000000000000000000000000,9616632.0000000000000000000000000000000000,2016995.2021562033000000000000000000000000,4.0728564830287484000000000000000000,424510039052.4335900000000000000000000000000000,18674132130.2454070000000000000000000000000000,-10797116512.9388900000000000000000000000000000
Uganda,44.0000000000000000000000000000000000,15800000000.0000000000000000000000000000000000,417880158.7456672200000000000000000000000000,3222183.0000000000000000000000000000000000,111535.4315781657900000000000000000000000,4.6244813902978246000000000000000000,112257306542.2681600000000000000000000000000000,5449071371.5719585000000000000000000000000000,-3231090758.3072338000000000000000000000000000
Ukraine,45.0000000000000000000000000000000000,117200000000.0000000000000000000000000000000000,56528674.8388288770000000000000000000000000,10985100.0000000000000000000000000000000000,741699.1548977220700000000000000000000000,1.7939273585413620000000000000000000,96987333471.3971100000000000000000000000000000,7570404173.5752239000000000000000000000000000,-4480869274.6855774000000000000000000000000000
United Kingdom,46.0000000000000000000000000000000000,2171000000000.0000000000000000000000000000000000,87362576.7197032420000000000000000000000000,2136209.0000000000000000000000000000000000,248498.5447183777900000000000000000000000,4.2189198423173133000000000000000000,106779527366.7243300000000000000000000000000000,4201587820.6669569000000000000000000000000000,-2475267483.8471646000000000000000000000000000
United States,47.0000000000000000000000000000000000,13860000000000.0000000000000000000000000000000000,324151059.7200495000000000000000000000000000,88779686.0000000000000000000000000000000000,2088454.7715338930000000000000000000000000,1.4411214503537202000000000000000000,2153201794540.9978000000000000000000000000000000,98426777391.3828890000000000000000000000000000,-58364781998.8211750000000000000000000000000000
Uzbekistan,48.0000000000000000000000000000000000,32820000000.0000000000000000000000000000000000,47612321.8642457430000000000000000000000000,3027000.0000000000000000000000000000000000,842930.2719349251100000000000000000000000,8.2958108119379919000000000000000000,130617064536.6467400000000000000000000000000000,6543035333.1454020000000000000000000000000000,-3744422199.2352915000000000000000000000000000
Venezuela,49.0000000000000000000000000000000000,329400000000.0000000000000000000000000000000000,1494042564.0197439000000000000000000000000000,1315997.0000000000000000000000000000000000,49518.3274931896810000000000000000000000,11.2249225584359720000000000000000000,180785468046.7476200000000000000000000000000000,8702668581.2057476000000000000000000000000000,-5168123554.8986034000000000000000000000000000
Viet Nam,50.0000000000000000000000000000000000,97180000000.0000000000000000000000000000000000,111544067.9258971800000000000000000000000000,9081144.0000000000000000000000000000000000,1313355.6371300337000000000000000000000000,8.2279962056619382000000000000000000,492287896945.5525500000000000000000000000000000,18763764456.6176800000000000000000000000000000,-10815446025.5657790000000000000000000000000000
