\relax 
\citation{NRAwb}
\citation{NRPwb}
\bibcite{NRAwb}{1}
\@writefile{toc}{\contentsline {section}{\numberline {1}Introduction}{1}}
\@writefile{toc}{\contentsline {section}{\numberline {2}Background}{1}}
\@writefile{toc}{\contentsline {section}{\numberline {3}Data}{1}}
\@writefile{toc}{\contentsline {section}{\numberline {4}Empirical Results}{1}}
\@writefile{toc}{\contentsline {section}{\numberline {5}Conclusion}{1}}
\bibcite{NRPwb}{2}
