\relax 
\@writefile{toc}{\contentsline {section}{\numberline {1}Introduction}{1}\protected@file@percent }
\@writefile{toc}{\contentsline {section}{\numberline {2}Literature Review}{1}\protected@file@percent }
\@writefile{toc}{\contentsline {section}{\numberline {3}Data}{1}\protected@file@percent }
\@writefile{toc}{\contentsline {section}{\numberline {4}Methodology}{1}\protected@file@percent }
\@writefile{toc}{\contentsline {section}{\numberline {5}Results}{1}\protected@file@percent }
\@writefile{toc}{\contentsline {section}{\numberline {6}Conclusion}{1}\protected@file@percent }
